<?xml version="1.0" encoding="UTF-8" standalone="no"?>
<!-- Generator: Adobe Illustrator 16.0.0, SVG Export Plug-In . SVG Version: 6.00 Build 0)  -->

<svg
   xmlns:dc="http://purl.org/dc/elements/1.1/"
   xmlns:cc="http://creativecommons.org/ns#"
   xmlns:rdf="http://www.w3.org/1999/02/22-rdf-syntax-ns#"
   xmlns:svg="http://www.w3.org/2000/svg"
   xmlns="http://www.w3.org/2000/svg"
   xmlns:sodipodi="http://sodipodi.sourceforge.net/DTD/sodipodi-0.dtd"
   xmlns:inkscape="http://www.inkscape.org/namespaces/inkscape"
   version="1.1"
   id="Capa_1"
   x="0px"
   y="0px"
   width="1000"
   height="1000"
   viewBox="0 0 1000 1000"
   enable-background="new 0 0 283.465 368.503"
   xml:space="preserve"
   sodipodi:docname="producto.svg"
   inkscape:version="0.92.3 (2405546, 2018-03-11)"><metadata
   id="metadata259"><rdf:RDF><cc:Work
       rdf:about=""><dc:format>image/svg+xml</dc:format><dc:type
         rdf:resource="http://purl.org/dc/dcmitype/StillImage" /><dc:title /></cc:Work></rdf:RDF></metadata><defs
   id="defs257" /><sodipodi:namedview
   pagecolor="#ffffff"
   bordercolor="#666666"
   borderopacity="1"
   objecttolerance="10"
   gridtolerance="10"
   guidetolerance="10"
   inkscape:pageopacity="0"
   inkscape:pageshadow="2"
   inkscape:window-width="1366"
   inkscape:window-height="705"
   id="namedview255"
   showgrid="false"
   inkscape:zoom="0.3202145"
   inkscape:cx="-85.237626"
   inkscape:cy="380.32092"
   inkscape:window-x="-8"
   inkscape:window-y="-8"
   inkscape:window-maximized="1"
   inkscape:current-layer="Capa_1" />



<g
   id="Layer_1"
   transform="translate(0,631.49701)">
	<g
   id="g62">
		<g
   id="g28">
			<path
   d="m 1117.06,86.373 -0.264,0.774 -0.266,-0.774 c -0.049,-0.146 0.029,-0.304 0.176,-0.354 0.145,-0.05 0.303,0.028 0.354,0.174 0.019,0.06 0.019,0.123 0,0.18 z"
   id="path26"
   inkscape:connector-curvature="0"
   style="fill:#010202" />
		</g>
		<g
   id="g32">
			<path
   d="m 1114.683,88.22 0.775,0.264 -0.775,0.264 c -0.145,0.049 -0.303,-0.028 -0.354,-0.174 -0.049,-0.146 0.029,-0.305 0.174,-0.354 0.06,-0.02 0.125,-0.019 0.18,0 z"
   id="path30"
   inkscape:connector-curvature="0"
   style="fill:#010202" />
		</g>
		<g
   id="g36">
			<path
   d="m 1116.53,90.596 0.266,-0.774 0.264,0.774 c 0.049,0.146 -0.027,0.304 -0.174,0.354 -0.147,0.05 -0.305,-0.028 -0.355,-0.174 -0.02,-0.061 -0.018,-0.124 -10e-4,-0.18 z"
   id="path34"
   inkscape:connector-curvature="0"
   style="fill:#010202" />
		</g>
		<g
   id="g40">
			<path
   d="m 1118.907,88.748 -0.775,-0.264 0.775,-0.264 c 0.145,-0.05 0.303,0.028 0.354,0.174 0.049,0.146 -0.027,0.304 -0.174,0.354 -0.061,0.02 -0.123,0.019 -0.18,0 z"
   id="path38"
   inkscape:connector-curvature="0"
   style="fill:#010202" />
		</g>
		<g
   id="g44">
			<path
   d="m 1115.489,86.804 0.359,0.734 -0.732,-0.361 c -0.139,-0.067 -0.195,-0.235 -0.129,-0.373 0.068,-0.138 0.236,-0.195 0.373,-0.127 0.059,0.028 0.102,0.074 0.129,0.127 z"
   id="path42"
   inkscape:connector-curvature="0"
   style="fill:#010202" />
		</g>
		<g
   id="g48">
			<path
   d="m 1115.116,89.791 0.732,-0.361 -0.359,0.734 c -0.068,0.138 -0.236,0.195 -0.373,0.127 -0.139,-0.068 -0.195,-0.235 -0.129,-0.373 0.03,-0.058 0.075,-0.101 0.129,-0.127 z"
   id="path46"
   inkscape:connector-curvature="0"
   style="fill:#010202" />
		</g>
		<g
   id="g52">
			<path
   d="m 1118.101,90.164 -0.359,-0.734 0.734,0.361 c 0.137,0.068 0.193,0.235 0.127,0.373 -0.068,0.138 -0.236,0.195 -0.373,0.127 -0.059,-0.028 -0.102,-0.074 -0.129,-0.127 z"
   id="path50"
   inkscape:connector-curvature="0"
   style="fill:#010202" />
		</g>
		<g
   id="g56">
			<path
   d="m 1118.474,87.177 -0.732,0.361 0.359,-0.734 c 0.068,-0.138 0.236,-0.195 0.373,-0.127 0.139,0.068 0.195,0.235 0.127,0.373 -0.028,0.057 -0.073,0.101 -0.127,0.127 z"
   id="path54"
   inkscape:connector-curvature="0"
   style="fill:#010202" />
		</g>
		<g
   id="g60">
			<path
   d="m 1116.796,89.672 c -0.656,0 -1.189,-0.533 -1.189,-1.188 0,-0.654 0.533,-1.188 1.189,-1.188 0.654,0 1.188,0.533 1.188,1.188 -10e-4,0.655 -0.534,1.188 -1.188,1.188 z m 0,-1.848 c -0.365,0 -0.66,0.296 -0.66,0.66 0,0.364 0.295,0.66 0.66,0.66 0.363,0 0.658,-0.296 0.658,-0.66 0,-0.364 -0.295,-0.66 -0.658,-0.66 z"
   id="path58"
   inkscape:connector-curvature="0"
   style="fill:#010202" />
		</g>
	</g>
</g>
<g
   id="g67"
   transform="translate(0,631.49701)">
	<path
   d="m 1118.636,113.212 c -0.027,-0.04 -0.074,-0.058 -0.121,-0.051 0,0 0,-0.001 -0.01,-0.001 l -1.893,-0.278 c -0.021,-0.003 -0.043,0 -0.063,0.006 l -1.516,0.556 c 0,0 0,10e-4 0,10e-4 0,0.001 0,0.002 -0.01,0.002 -0.01,0.004 -0.016,0.008 -0.023,0.013 0,0.001 0,0.003 -0.01,0.005 -0.01,0.006 -0.014,0.013 -0.021,0.021 0,0 0,0 0,10e-4 l -0.641,0.876 c -0.025,0.034 -0.031,0.078 -0.018,0.117 0.014,0.04 0.047,0.069 0.088,0.08 l 0.555,0.143 v 1.374 c 0,0.055 0.037,0.104 0.09,0.12 l 2.035,0.622 c 0,0 0,0 0,0 0.01,0.003 0.021,0.005 0.033,0.005 v 0 0 0 c 0.014,0 0.025,-0.002 0.037,-0.006 0,-0.001 0.01,-0.002 0.01,-0.004 0.01,-0.002 0.01,-0.003 0.016,-0.006 l 1.459,-0.811 c 0.041,-0.022 0.064,-0.064 0.064,-0.11 v -1.374 l 0.494,-0.237 c 0.033,-0.016 0.059,-0.046 0.068,-0.082 0.01,-0.036 0,-0.074 -0.02,-0.104 z m -2.026,-0.076 1.479,0.217 -0.98,0.456 -1.553,-0.286 z m -1.474,0.564 1.779,0.328 -0.523,0.784 -1.74,-0.449 z m 0.08,2.285 v -1.216 l 1.199,0.31 c 0.01,0.003 0.021,0.004 0.031,0.004 0.041,0 0.082,-0.021 0.105,-0.056 l 0.447,-0.672 v 2.175 z m 3.244,-0.17 -1.209,0.67 v -1.984 l 0.221,0.469 c 0.014,0.03 0.039,0.054 0.07,0.065 0.014,0.005 0.029,0.007 0.043,0.007 0.02,0 0.037,-0.004 0.055,-0.013 l 0.82,-0.393 z m -0.814,-1.066 -0.354,-0.749 1.199,-0.557 0.471,0.673 z"
   id="path65"
   inkscape:connector-curvature="0"
   style="fill:#010202" />
</g>





<path
   d="m 1173.894,737.13601 c 0,0.28 -0.229,0.508 -0.508,0.508 h -3.945 c -0.279,0 -0.508,-0.228 -0.508,-0.508 0,-0.027 0.01,-0.055 0.016,-0.08 l 1.365,-3.581 c 0,-0.005 0,-0.011 0,-0.017 v -2.051 h -0.162 c -0.123,0 -0.223,-0.1 -0.223,-0.224 0,-0.124 0.1,-0.224 0.223,-0.224 h 0.385 c 0.125,0 0.225,0.1 0.225,0.224 v 2.292 c 0,0.013 0,0.026 0,0.039 0,0.027 -0.01,0.064 -0.016,0.089 l -0.822,2.157 h 2.967 l -0.852,-2.154 c -0.01,-0.023 -0.014,-0.047 -0.014,-0.072 v -0.014 c 0,-0.009 0,-0.018 0,-0.026 v -2.311 c 0,-0.124 0.1,-0.224 0.223,-0.224 h 0.396 c 0.123,0 0.223,0.1 0.223,0.224 0,0.124 -0.1,0.224 -0.223,0.224 h -0.172 v 2.066 l 1.412,3.58 c 0.01,0.027 0.016,0.054 0.016,0.083 z m -2.915,-1.874 c 0,-0.092 0.076,-0.167 0.168,-0.167 0.092,0 0.168,0.075 0.168,0.167 0,0.093 -0.076,0.168 -0.168,0.168 -0.092,0 -0.168,-0.076 -0.168,-0.168 z m 0.112,0 c 0,0.031 0.025,0.056 0.057,0.056 0.032,0 0.057,-0.025 0.057,-0.056 0,-0.031 -0.025,-0.056 -0.057,-0.056 -0.032,0 -0.057,0.025 -0.057,0.056 z m 0.756,-0.168 c 0,-0.092 0.074,-0.168 0.168,-0.168 0.092,0 0.168,0.075 0.168,0.168 0,0.092 -0.076,0.167 -0.168,0.167 -0.094,10e-4 -0.168,-0.075 -0.168,-0.167 z m 0.111,0 c 0,0.031 0.025,0.056 0.057,0.056 0.032,0 0.055,-0.025 0.055,-0.056 0,-0.031 -0.023,-0.056 -0.055,-0.056 -0.032,0 -0.057,0.025 -0.057,0.056 z m -0.578,-0.559 c 0,-0.128 0.105,-0.233 0.234,-0.233 0.127,0 0.232,0.104 0.232,0.233 0,0.129 -0.105,0.233 -0.232,0.233 -0.129,0 -0.234,-0.104 -0.234,-0.233 z m 0.113,0 c 0,0.067 0.053,0.121 0.121,0.121 0.066,0 0.121,-0.054 0.121,-0.121 0,-0.067 -0.055,-0.121 -0.121,-0.121 -0.068,0 -0.121,0.054 -0.121,0.121 z"
   id="path79"
   inkscape:connector-curvature="0"
   style="fill:#010202" />
<g
   id="g87"
   transform="translate(0,631.49701)">
	<path
   d="m 1184.313,142.608 -1.139,-1.139 c -0.17,0.264 -0.393,0.488 -0.658,0.658 l 1.139,1.138 c 0.182,0.182 0.477,0.182 0.658,0 0.182,-0.181 0.182,-0.475 0,-0.657 z"
   id="path81"
   inkscape:connector-curvature="0"
   style="fill:#010202" />
	<path
   d="m 1183.21,140.301 c 0,-1.028 -0.834,-1.861 -1.861,-1.861 -1.027,0 -1.859,0.833 -1.859,1.861 0,1.027 0.832,1.86 1.859,1.86 1.027,0 1.861,-0.833 1.861,-1.86 z m -1.861,1.395 c -0.77,0 -1.395,-0.626 -1.395,-1.395 0,-0.77 0.625,-1.396 1.395,-1.396 0.77,0 1.396,0.626 1.396,1.396 0,0.769 -0.627,1.395 -1.396,1.395 z"
   id="path83"
   inkscape:connector-curvature="0"
   style="fill:#010202" />
	<path
   d="m 1180.263,140.301 h 0.311 c 0,-0.428 0.348,-0.775 0.775,-0.775 v -0.31 c -0.598,0 -1.086,0.487 -1.086,1.085 z"
   id="path85"
   inkscape:connector-curvature="0"
   style="fill:#010202" />
</g>
<ellipse
   style="opacity:1;fill:#edf1e3;fill-opacity:1;fill-rule:nonzero;stroke:#000000;stroke-width:7.55905533;stroke-miterlimit:4;stroke-dasharray:none;stroke-dashoffset:0;stroke-opacity:1"
   id="path1066"
   cx="487.17343"
   cy="500.33493"
   rx="184.2515"
   ry="199.86603" /><path
   d="m 844.45338,393.3375 -23.98709,-56.96354 c 0,0 55.82057,-125.86144 50.83163,-130.71137 l -73.82505,-72.11058 c -5.14855,-4.98894 -131.05117,52.46886 -131.05117,52.46886 l -58.10138,-23.49282 c 0,0 -51.31044,-127.575903 -58.3691,-127.575903 H 445.70855 c -7.21827,0 -54.73423,127.895113 -54.73423,127.895113 l -57.99841,23.49282 c 0,0 -128.57471,-54.61065 -133.50702,-49.76072 l -73.75297,72.25474 c -5.09706,4.91686 53.59125,128.2864 53.59125,128.2864 l -23.97165,56.89146 c 0,0 -130.335522,50.2241 -130.335522,56.99444 v 102.16266 c 0,7.13075 130.654732,53.67878 130.654732,53.67878 l 23.97165,56.78335 c 0,0 -55.78453,125.7945 -50.91915,130.63928 l 73.85593,72.29078 c 4.98895,4.92202 130.97909,-52.57698 130.97909,-52.57698 l 58.15287,23.55976 c 0,0 51.29499,127.50382 58.38969,127.50382 h 104.22723 c 7.24916,0 54.77027,-127.89511 54.77027,-127.89511 l 58.17346,-23.52372 c 0,0 128.32244,54.6467 133.28049,49.86885 l 73.85594,-72.2187 c 5.11765,-5.02499 -53.71997,-128.32244 -53.71997,-128.32244 l 23.92016,-56.89147 c 0,0 130.40761,-50.29618 130.40761,-57.17464 V 446.80004 C 975.0257,439.75168 844.45338,393.3375 844.45338,393.3375 Z M 652.32497,499.95366 c 0,82.16055 -68.32639,149.10198 -152.29408,149.10198 -83.89046,0 -152.31468,-66.94143 -152.31468,-149.10198 0,-82.12451 68.42422,-148.92693 152.31468,-148.92693 83.99858,0.036 152.29408,66.80242 152.29408,148.92693 z"
   id="path89"
   inkscape:connector-curvature="0"
   style="fill:#221b45;stroke-width:5.14854908" />


<path
   d="m 1281.192,851.62001 v 35.636 l 10.699,-4.761 7.117,16.64 5.939,-2.97 -7.006,-16.354 9.977,-4.435 z"
   id="path100"
   inkscape:connector-curvature="0"
   style="fill:#010202" />








































</svg>